[gd_resource type="DynamicFont" load_steps=2 format=2]

[sub_resource type="DynamicFontData" id=11]
font_path = "res://Assets/trueno-font/TruenoBold-XYE2.otf"

[resource]
size = 30
outline_color = Color( 0, 0, 0, 1 )
font_data = SubResource( 11 )
