[gd_scene load_steps=3 format=2]

[ext_resource path="res://Scripts/VKey.gd" type="Script" id=1]
[ext_resource path="res://Scenes/new_dynamicfont.tres" type="DynamicFont" id=2]

[node name="VKey" type="Button"]
anchor_right = 1.0
anchor_bottom = 1.0
size_flags_horizontal = 3
size_flags_vertical = 3
custom_fonts/font = ExtResource( 2 )
flat = true
script = ExtResource( 1 )

[node name="bg_colour" type="ColorRect" parent="."]
show_behind_parent = true
anchor_right = 1.0
anchor_bottom = 1.0
mouse_filter = 1
color = Color( 0.14902, 0.172549, 0.231373, 1 )

[node name="ColourTween" type="Tween" parent="."]

[connection signal="pressed" from="." to="." method="_on_VKey_pressed"]
