[gd_scene load_steps=2 format=2]

[sub_resource type="StyleBoxFlat" id=1]
bg_color = Color( 0.25098, 0.239216, 0.239216, 1 )
corner_radius_top_left = 5
corner_radius_top_right = 5
corner_radius_bottom_right = 5
corner_radius_bottom_left = 5

[node name="GreyRect" type="Label"]
margin_right = 15.0
margin_bottom = 15.0
rect_min_size = Vector2( 25, 25 )
custom_styles/normal = SubResource( 1 )
